f1/top.vcd
$version Generated by VerilatedVcd $end
$date Fri Dec 16 22:07:27 2022 $end
$timescale 1ps $end

 $scope module TOP $end
  $var wire 32 [ a0 [31:0] $end
  $var wire  1 Y clk $end
  $var wire  1 Z rst $end
  $scope module top $end
   $var wire  3 * ALUctrlCU [2:0] $end
   $var wire 32 0 ALUop2 [31:0] $end
   $var wire 32 1 ALUresult [31:0] $end
   $var wire  1 + ALUsrc $end
   $var wire  1 4 Addr_mode $end
   $var wire  1 & EQ $end
   $var wire 32 # ImmOp [31:0] $end
   $var wire  3 , ImmSrc [2:0] $end
   $var wire 32 % Instr [31:0] $end
   $var wire  1 3 MemWrite $end
   $var wire 32 $ PC [31:0] $end
   $var wire  2 - PCsrc [1:0] $end
   $var wire 32 2 ReadData [31:0] $end
   $var wire  1 ) RegWrite $end
   $var wire 32 ' Result [31:0] $end
   $var wire  2 ( ResultSrc [1:0] $end
   $var wire 32 \ WIDTH [31:0] $end
   $var wire 32 [ a0 [31:0] $end
   $var wire  1 Y clk $end
   $var wire 32 5 next_PC [31:0] $end
   $var wire 32 . rd1 [31:0] $end
   $var wire 32 / rd2 [31:0] $end
   $var wire  1 Z rst $end
   $scope module CU $end
    $var wire  3 * ALUctrl_out [2:0] $end
    $var wire  1 + ALUsrc_out $end
    $var wire  1 4 Addr_mode_out $end
    $var wire  1 & EQ_in $end
    $var wire  3 , ImmSrc_out [2:0] $end
    $var wire 32 % InstrD_in [31:0] $end
    $var wire  1 3 MemWrite_out $end
    $var wire  2 - PCsrc_out [1:0] $end
    $var wire  1 ) RegWrite_out $end
    $var wire  2 ( ResultSrc_out [1:0] $end
   $upscope $end
   $scope module DataMem $end
    $var wire 32 \ D_WIDTH [31:0] $end
    $var wire 32 2 ReadData_out [31:0] $end
    $var wire 32 1 a_in [31:0] $end
    $var wire  1 4 addr_mode $end
    $var wire  1 Y clk_in $end
    $var wire 32 / wd_in [31:0] $end
    $var wire  1 3 we_in $end
   $upscope $end
   $scope module SignExt $end
    $var wire 32 # ImmOp_out [31:0] $end
    $var wire  3 , ImmSrc_in [2:0] $end
    $var wire 32 % instr_in [31:0] $end
   $upscope $end
   $scope module alu $end
    $var wire 32 ] ADDRESS_WIDTH [31:0] $end
    $var wire  3 * ALUctrlCU_in [2:0] $end
    $var wire 32 . ALUop1_in [31:0] $end
    $var wire 32 0 ALUop2_in [31:0] $end
    $var wire 32 \ DATA_WIDTH [31:0] $end
    $var wire  1 & EQ_out $end
    $var wire 32 1 Sum_out [31:0] $end
   $upscope $end
   $scope module instrmem $end
    $var wire 32 \ A_WIDTH [31:0] $end
    $var wire 32 ^ D_WIDTH [31:0] $end
    $var wire 32 % Instr_out [31:0] $end
    $var wire 32 $ PC_in [31:0] $end
   $upscope $end
   $scope module pcreg $end
    $var wire 32 \ D_WIDTH [31:0] $end
    $var wire 32 $ PC_out [31:0] $end
    $var wire  1 Y clk_in $end
    $var wire 32 5 next_PC [31:0] $end
    $var wire  1 Z rst_in $end
   $upscope $end
   $scope module read_data1 $end
    $var wire 32 _ A_WIDTH [31:0] $end
    $var wire 32 \ D_WIDTH [31:0] $end
    $var wire  1 ) RegWrite_in $end
    $var wire 32 [ a0_out [31:0] $end
    $var wire  1 Y clk_in $end
    $var wire 32 9 mem_array[0] [31:0] $end
    $var wire 32 C mem_array[10] [31:0] $end
    $var wire 32 D mem_array[11] [31:0] $end
    $var wire 32 E mem_array[12] [31:0] $end
    $var wire 32 F mem_array[13] [31:0] $end
    $var wire 32 G mem_array[14] [31:0] $end
    $var wire 32 H mem_array[15] [31:0] $end
    $var wire 32 I mem_array[16] [31:0] $end
    $var wire 32 J mem_array[17] [31:0] $end
    $var wire 32 K mem_array[18] [31:0] $end
    $var wire 32 L mem_array[19] [31:0] $end
    $var wire 32 : mem_array[1] [31:0] $end
    $var wire 32 M mem_array[20] [31:0] $end
    $var wire 32 N mem_array[21] [31:0] $end
    $var wire 32 O mem_array[22] [31:0] $end
    $var wire 32 P mem_array[23] [31:0] $end
    $var wire 32 Q mem_array[24] [31:0] $end
    $var wire 32 R mem_array[25] [31:0] $end
    $var wire 32 S mem_array[26] [31:0] $end
    $var wire 32 T mem_array[27] [31:0] $end
    $var wire 32 U mem_array[28] [31:0] $end
    $var wire 32 V mem_array[29] [31:0] $end
    $var wire 32 ; mem_array[2] [31:0] $end
    $var wire 32 W mem_array[30] [31:0] $end
    $var wire 32 X mem_array[31] [31:0] $end
    $var wire 32 < mem_array[3] [31:0] $end
    $var wire 32 = mem_array[4] [31:0] $end
    $var wire 32 > mem_array[5] [31:0] $end
    $var wire 32 ? mem_array[6] [31:0] $end
    $var wire 32 @ mem_array[7] [31:0] $end
    $var wire 32 A mem_array[8] [31:0] $end
    $var wire 32 B mem_array[9] [31:0] $end
    $var wire 32 . rd1_out [31:0] $end
    $var wire 32 / rd2_out [31:0] $end
    $var wire  5 8 rd_in [4:0] $end
    $var wire  5 6 rs1_in [4:0] $end
    $var wire  5 7 rs2_in [4:0] $end
    $var wire 32 ' write_data3_in [31:0] $end
   $upscope $end
   $scope module src $end
    $var wire 32 0 ALUop2_out [31:0] $end
    $var wire  1 + ALUsrc_in $end
    $var wire 32 \ DATA_WIDTH [31:0] $end
    $var wire 32 # ImmOpE_in [31:0] $end
    $var wire 32 / regOp2_in [31:0] $end
   $upscope $end
  $upscope $end
 $upscope $end
$enddefinitions $end


#0
b00000000000000000000000000000000 #
b00000000000000000000000000000000 $
b00000000000000000000000000000000 %
1&
b00000000000000000000000000000000 '
b00 (
0)
b000 *
0+
b000 ,
b00 -
b00000000000000000000000000000000 .
b00000000000000000000000000000000 /
b00000000000000000000000000000000 0
b00000000000000000000000000000000 1
b00000000000000000000000000000000 2
03
04
b00000000000000000000000000000100 5
b00000 6
b00000 7
b00000 8
b00000000000000000000000000000000 9
b00000000000000000000000000000000 :
b00000000000000000000000000000000 ;
b00000000000000000000000000000000 <
b00000000000000000000000000000000 =
b00000000000000000000000000000000 >
b00000000000000000000000000000000 ?
b00000000000000000000000000000000 @
b00000000000000000000000000000000 A
b00000000000000000000000000000000 B
b00000000000000000000000000000000 C
b00000000000000000000000000000000 D
b00000000000000000000000000000000 E
b00000000000000000000000000000000 F
b00000000000000000000000000000000 G
b00000000000000000000000000000000 H
b00000000000000000000000000000000 I
b00000000000000000000000000000000 J
b00000000000000000000000000000000 K
b00000000000000000000000000000000 L
b00000000000000000000000000000000 M
b00000000000000000000000000000000 N
b00000000000000000000000000000000 O
b00000000000000000000000000000000 P
b00000000000000000000000000000000 Q
b00000000000000000000000000000000 R
b00000000000000000000000000000000 S
b00000000000000000000000000000000 T
b00000000000000000000000000000000 U
b00000000000000000000000000000000 V
b00000000000000000000000000000000 W
b00000000000000000000000000000000 X
0Y
0Z
b00000000000000000000000000000000 [
b00000000000000000000000000100000 \
b00000000000000000000000000000011 ]
b00000000000000000000000000001000 ^
b00000000000000000000000000000101 _
#1
b00000000000000000000000011111111 #
b00001111111100000000001100010011 %
0&
b00000000000000000000000011111111 '
1)
1+
b001 ,
b00000000000000000000000011111111 0
b00000000000000000000000011111111 1
b11111 7
b00110 8
1Y
#2
0Y
#3
b00000000000000000000000000000000 #
b00000000000000000000000000000100 $
b00000000000000000000010100010011 %
1&
b00000000000000000000000000000000 '
b00000000000000000000000000000000 0
b00000000000000000000000000000000 1
b00000000000000000000000000001000 5
b00000 7
b01010 8
b00000000000000000000000011111111 ?
1Y
#4
0Y
#5
b00000000000000000000000000001000 $
b00000000000000000000010110010011 %
b00000000000000000000000000001100 5
b01011 8
1Y
#6
0Y
#7
b00000000000000000000100000001010 #
b00000000000000000000000000001100 $
b00000000000101011001010110010011 %
0&
b001 *
b000 ,
b00000000000000000000100000001010 0
b00000000000000000000000000010000 5
b01011 6
b00001 7
1Y
#8
0Y
#9
b00000000000000000000000000000001 #
b00000000000000000000000000010000 $
b00000000000101011000010110010011 %
b00000000000000000000000000000001 '
b000 *
b001 ,
b00000000000000000000000000000001 0
b00000000000000000000000000000001 1
b00000000000000000000000000010100 5
1Y
#10
0Y
#11
b00000000000000000000000000000000 #
b00000000000000000000000000010100 $
b00000000000001011000010100010011 %
b00000000000000000000000000000001 .
b00000000000000000000000000000000 0
b00000000000000000000000000011000 5
b00000 7
b01010 8
b00000000000000000000000000000001 D
1Y
#12
0Y
#13
b00000000000000000000000000001100 #
b00000000000000000000000000011000 $
b00000000110000000000000011101111 %
b00000000000000000000000000011100 '
b10 (
b011 ,
b01 -
b00000000000000000000000000000000 .
b00000000000000000000000000001100 0
b00000000000000000000000000001100 1
b00000000000000000000000000100100 5
b00000 6
b01100 7
b00001 8
b00000000000000000000000000000001 C
1Y
b00000000000000000000000000000001 [
#14
0Y
#15
b00000000000000000000000000000000 #
b00000000000000000000000000100100 $
b00000000000000000000001010010011 %
1&
b00000000000000000000000000000000 '
b00 (
b001 ,
b00 -
b00000000000000000000000000000000 0
b00000000000000000000000000000000 1
b00000000000000000000000000101000 5
b00000 7
b00101 8
b00000000000000000000000000011100 :
1Y
#16
0Y
#17
b00000000000000000000000001100100 #
b00000000000000000000000000101000 $
b00000110010000000000001110010011 %
0&
b00000000000000000000000001100100 '
b00000000000000000000000001100100 0
b00000000000000000000000001100100 1
b00000000000000000000000000101100 5
b00100 7
b00111 8
1Y
#18
0Y
#19
b00000000000000000000000000000001 #
b00000000000000000000000000101100 $
b00000000000100101000001010010011 %
b00000000000000000000000000000001 '
b00000000000000000000000000011100 /
b00000000000000000000000000000001 0
b00000000000000000000000000000001 1
b00000000000000000000000000110000 5
b00101 6
b00001 7
b00101 8
b00000000000000000000000001100100 @
1Y
#20
0Y
#21
b11111111111111111111111111111100 #
b00000000000000000000000000110000 $
b11111110011100101001111011100011 %
b00000000000000000000000001100101 '
0)
0+
b000 ,
b01 -
b00000000000000000000000000000001 .
b00000000000000000000000001100100 /
b00000000000000000000000001100100 0
b00000000000000000000000001100101 1
b00000000000000000000000000101100 5
b00111 7
b11101 8
b00000000000000000000000000000001 >
1Y
#22
0Y
#23
b00000000000000000000000000000001 #
b00000000000000000000000000101100 $
b00000000000100101000001010010011 %
1&
b00000000000000000000000000000010 '
1)
1+
b001 ,
b00 -
b00000000000000000000000000011100 /
b00000000000000000000000000000001 0
b00000000000000000000000000000010 1
b00000000000000000000000000110000 5
b00001 7
b00101 8
1Y
#24
0Y
#25
b11111111111111111111111111111100 #
b00000000000000000000000000110000 $
b11111110011100101001111011100011 %
0&
b00000000000000000000000001100110 '
0)
0+
b000 ,
b01 -
b00000000000000000000000000000010 .
b00000000000000000000000001100100 /
b00000000000000000000000001100100 0
b00000000000000000000000001100110 1
b00000000000000000000000000101100 5
b00111 7
b11101 8
b00000000000000000000000000000010 >
1Y
#26
0Y
#27
b00000000000000000000000000000001 #
b00000000000000000000000000101100 $
b00000000000100101000001010010011 %
b00000000000000000000000000000011 '
1)
1+
b001 ,
b00 -
b00000000000000000000000000011100 /
b00000000000000000000000000000001 0
b00000000000000000000000000000011 1
b00000000000000000000000000110000 5
b00001 7
b00101 8
1Y
#28
0Y
#29
b11111111111111111111111111111100 #
b00000000000000000000000000110000 $
b11111110011100101001111011100011 %
b00000000000000000000000001100111 '
0)
0+
b000 ,
b01 -
b00000000000000000000000000000011 .
b00000000000000000000000001100100 /
b00000000000000000000000001100100 0
b00000000000000000000000001100111 1
b00000000000000000000000000101100 5
b00111 7
b11101 8
b00000000000000000000000000000011 >
1Y
#30
0Y
#31
b00000000000000000000000000000001 #
b00000000000000000000000000101100 $
b00000000000100101000001010010011 %
b00000000000000000000000000000100 '
1)
1+
b001 ,
b00 -
b00000000000000000000000000011100 /
b00000000000000000000000000000001 0
b00000000000000000000000000000100 1
b00000000000000000000000000110000 5
b00001 7
b00101 8
1Y
#32
0Y
#33
b11111111111111111111111111111100 #
b00000000000000000000000000110000 $
b11111110011100101001111011100011 %
b00000000000000000000000001101000 '
0)
0+
b000 ,
b01 -
b00000000000000000000000000000100 .
b00000000000000000000000001100100 /
b00000000000000000000000001100100 0
b00000000000000000000000001101000 1
b00000000000000000000000000101100 5
b00111 7
b11101 8
b00000000000000000000000000000100 >
1Y
#34
0Y
#35
b00000000000000000000000000000001 #
b00000000000000000000000000101100 $
b00000000000100101000001010010011 %
b00000000000000000000000000000101 '
1)
1+
b001 ,
b00 -
b00000000000000000000000000011100 /
b00000000000000000000000000000001 0
b00000000000000000000000000000101 1
b00000000000000000000000000110000 5
b00001 7
b00101 8
1Y
#36
0Y
#37
b11111111111111111111111111111100 #
b00000000000000000000000000110000 $
b11111110011100101001111011100011 %
b00000000000000000000000001101001 '
0)
0+
b000 ,
b01 -
b00000000000000000000000000000101 .
b00000000000000000000000001100100 /
b00000000000000000000000001100100 0
b00000000000000000000000001101001 1
b00000000000000000000000000101100 5
b00111 7
b11101 8
b00000000000000000000000000000101 >
1Y
#38
0Y
#39
b00000000000000000000000000000001 #
b00000000000000000000000000101100 $
b00000000000100101000001010010011 %
b00000000000000000000000000000110 '
1)
1+
b001 ,
b00 -
b00000000000000000000000000011100 /
b00000000000000000000000000000001 0
b00000000000000000000000000000110 1
b00000000000000000000000000110000 5
b00001 7
b00101 8
1Y
#40
0Y
#41
b11111111111111111111111111111100 #
b00000000000000000000000000110000 $
b11111110011100101001111011100011 %
b00000000000000000000000001101010 '
0)
0+
b000 ,
b01 -
b00000000000000000000000000000110 .
b00000000000000000000000001100100 /
b00000000000000000000000001100100 0
b00000000000000000000000001101010 1
b00000000000000000000000000101100 5
b00111 7
b11101 8
b00000000000000000000000000000110 >
1Y
#42
0Y
#43
b00000000000000000000000000000001 #
b00000000000000000000000000101100 $
b00000000000100101000001010010011 %
b00000000000000000000000000000111 '
1)
1+
b001 ,
b00 -
b00000000000000000000000000011100 /
b00000000000000000000000000000001 0
b00000000000000000000000000000111 1
b00000000000000000000000000110000 5
b00001 7
b00101 8
1Y
#44
0Y
#45
b11111111111111111111111111111100 #
b00000000000000000000000000110000 $
b11111110011100101001111011100011 %
b00000000000000000000000001101011 '
0)
0+
b000 ,
b01 -
b00000000000000000000000000000111 .
b00000000000000000000000001100100 /
b00000000000000000000000001100100 0
b00000000000000000000000001101011 1
b00000000000000000000000000101100 5
b00111 7
b11101 8
b00000000000000000000000000000111 >
1Y
#46
0Y
#47
b00000000000000000000000000000001 #
b00000000000000000000000000101100 $
b00000000000100101000001010010011 %
b00000000000000000000000000001000 '
1)
1+
b001 ,
b00 -
b00000000000000000000000000011100 /
b00000000000000000000000000000001 0
b00000000000000000000000000001000 1
b00000000000000000000000000110000 5
b00001 7
b00101 8
1Y
#48
0Y
#49
b11111111111111111111111111111100 #
b00000000000000000000000000110000 $
b11111110011100101001111011100011 %
b00000000000000000000000001101100 '
0)
0+
b000 ,
b01 -
b00000000000000000000000000001000 .
b00000000000000000000000001100100 /
b00000000000000000000000001100100 0
b00000000000000000000000001101100 1
b00000000000000000000000000101100 5
b00111 7
b11101 8
b00000000000000000000000000001000 >
1Y
#50
0Y
#51
b00000000000000000000000000000001 #
b00000000000000000000000000101100 $
b00000000000100101000001010010011 %
b00000000000000000000000000001001 '
1)
1+
b001 ,
b00 -
b00000000000000000000000000011100 /
b00000000000000000000000000000001 0
b00000000000000000000000000001001 1
b00000000000000000000000000110000 5
b00001 7
b00101 8
1Y
#52
0Y
#53
b11111111111111111111111111111100 #
b00000000000000000000000000110000 $
b11111110011100101001111011100011 %
b00000000000000000000000001101101 '
0)
0+
b000 ,
b01 -
b00000000000000000000000000001001 .
b00000000000000000000000001100100 /
b00000000000000000000000001100100 0
b00000000000000000000000001101101 1
b00000000000000000000000000101100 5
b00111 7
b11101 8
b00000000000000000000000000001001 >
1Y
#54
0Y
#55
b00000000000000000000000000000001 #
b00000000000000000000000000101100 $
b00000000000100101000001010010011 %
b00000000000000000000000000001010 '
1)
1+
b001 ,
b00 -
b00000000000000000000000000011100 /
b00000000000000000000000000000001 0
b00000000000000000000000000001010 1
b00000000000000000000000000110000 5
b00001 7
b00101 8
1Y
#56
0Y
#57
b11111111111111111111111111111100 #
b00000000000000000000000000110000 $
b11111110011100101001111011100011 %
b00000000000000000000000001101110 '
0)
0+
b000 ,
b01 -
b00000000000000000000000000001010 .
b00000000000000000000000001100100 /
b00000000000000000000000001100100 0
b00000000000000000000000001101110 1
b00000000000000000000000000101100 5
b00111 7
b11101 8
b00000000000000000000000000001010 >
1Y
#58
0Y
#59
b00000000000000000000000000000001 #
b00000000000000000000000000101100 $
b00000000000100101000001010010011 %
b00000000000000000000000000001011 '
1)
1+
b001 ,
b00 -
b00000000000000000000000000011100 /
b00000000000000000000000000000001 0
b00000000000000000000000000001011 1
b00000000000000000000000000110000 5
b00001 7
b00101 8
1Y
#60
0Y
#61
b11111111111111111111111111111100 #
b00000000000000000000000000110000 $
b11111110011100101001111011100011 %
b00000000000000000000000001101111 '
0)
0+
b000 ,
b01 -
b00000000000000000000000000001011 .
b00000000000000000000000001100100 /
b00000000000000000000000001100100 0
b00000000000000000000000001101111 1
b00000000000000000000000000101100 5
b00111 7
b11101 8
b00000000000000000000000000001011 >
1Y
#62
0Y
#63
b00000000000000000000000000000001 #
b00000000000000000000000000101100 $
b00000000000100101000001010010011 %
b00000000000000000000000000001100 '
1)
1+
b001 ,
b00 -
b00000000000000000000000000011100 /
b00000000000000000000000000000001 0
b00000000000000000000000000001100 1
b00000000000000000000000000110000 5
b00001 7
b00101 8
1Y
#64
0Y
#65
b11111111111111111111111111111100 #
b00000000000000000000000000110000 $
b11111110011100101001111011100011 %
b00000000000000000000000001110000 '
0)
0+
b000 ,
b01 -
b00000000000000000000000000001100 .
b00000000000000000000000001100100 /
b00000000000000000000000001100100 0
b00000000000000000000000001110000 1
b00000000000000000000000000101100 5
b00111 7
b11101 8
b00000000000000000000000000001100 >
1Y
#66
0Y
#67
b00000000000000000000000000000001 #
b00000000000000000000000000101100 $
b00000000000100101000001010010011 %
b00000000000000000000000000001101 '
1)
1+
b001 ,
b00 -
b00000000000000000000000000011100 /
b00000000000000000000000000000001 0
b00000000000000000000000000001101 1
b00000000000000000000000000110000 5
b00001 7
b00101 8
1Y
#68
0Y
#69
b11111111111111111111111111111100 #
b00000000000000000000000000110000 $
b11111110011100101001111011100011 %
b00000000000000000000000001110001 '
0)
0+
b000 ,
b01 -
b00000000000000000000000000001101 .
b00000000000000000000000001100100 /
b00000000000000000000000001100100 0
b00000000000000000000000001110001 1
b00000000000000000000000000101100 5
b00111 7
b11101 8
b00000000000000000000000000001101 >
1Y
#70
0Y
#71
b00000000000000000000000000000001 #
b00000000000000000000000000101100 $
b00000000000100101000001010010011 %
b00000000000000000000000000001110 '
1)
1+
b001 ,
b00 -
b00000000000000000000000000011100 /
b00000000000000000000000000000001 0
b00000000000000000000000000001110 1
b00000000000000000000000000110000 5
b00001 7
b00101 8
1Y
#72
0Y
#73
b11111111111111111111111111111100 #
b00000000000000000000000000110000 $
b11111110011100101001111011100011 %
b00000000000000000000000001110010 '
0)
0+
b000 ,
b01 -
b00000000000000000000000000001110 .
b00000000000000000000000001100100 /
b00000000000000000000000001100100 0
b00000000000000000000000001110010 1
b00000000000000000000000000101100 5
b00111 7
b11101 8
b00000000000000000000000000001110 >
1Y
#74
0Y
#75
b00000000000000000000000000000001 #
b00000000000000000000000000101100 $
b00000000000100101000001010010011 %
b00000000000000000000000000001111 '
1)
1+
b001 ,
b00 -
b00000000000000000000000000011100 /
b00000000000000000000000000000001 0
b00000000000000000000000000001111 1
b00000000000000000000000000110000 5
b00001 7
b00101 8
1Y
#76
0Y
#77
b11111111111111111111111111111100 #
b00000000000000000000000000110000 $
b11111110011100101001111011100011 %
b00000000000000000000000001110011 '
0)
0+
b000 ,
b01 -
b00000000000000000000000000001111 .
b00000000000000000000000001100100 /
b00000000000000000000000001100100 0
b00000000000000000000000001110011 1
b00000000000000000000000000101100 5
b00111 7
b11101 8
b00000000000000000000000000001111 >
1Y
#78
0Y
#79
b00000000000000000000000000000001 #
b00000000000000000000000000101100 $
b00000000000100101000001010010011 %
b00000000000000000000000000010000 '
1)
1+
b001 ,
b00 -
b00000000000000000000000000011100 /
b00000000000000000000000000000001 0
b00000000000000000000000000010000 1
b00000000000000000000000000110000 5
b00001 7
b00101 8
1Y
#80
0Y
#81
b11111111111111111111111111111100 #
b00000000000000000000000000110000 $
b11111110011100101001111011100011 %
b00000000000000000000000001110100 '
0)
0+
b000 ,
b01 -
b00000000000000000000000000010000 .
b00000000000000000000000001100100 /
b00000000000000000000000001100100 0
b00000000000000000000000001110100 1
b00000000000000000000000000101100 5
b00111 7
b11101 8
b00000000000000000000000000010000 >
1Y
#82
0Y
#83
b00000000000000000000000000000001 #
b00000000000000000000000000101100 $
b00000000000100101000001010010011 %
b00000000000000000000000000010001 '
1)
1+
b001 ,
b00 -
b00000000000000000000000000011100 /
b00000000000000000000000000000001 0
b00000000000000000000000000010001 1
b00000000000000000000000000110000 5
b00001 7
b00101 8
1Y
#84
0Y
#85
b11111111111111111111111111111100 #
b00000000000000000000000000110000 $
b11111110011100101001111011100011 %
b00000000000000000000000001110101 '
0)
0+
b000 ,
b01 -
b00000000000000000000000000010001 .
b00000000000000000000000001100100 /
b00000000000000000000000001100100 0
b00000000000000000000000001110101 1
b00000000000000000000000000101100 5
b00111 7
b11101 8
b00000000000000000000000000010001 >
1Y
#86
0Y
#87
b00000000000000000000000000000001 #
b00000000000000000000000000101100 $
b00000000000100101000001010010011 %
b00000000000000000000000000010010 '
1)
1+
b001 ,
b00 -
b00000000000000000000000000011100 /
b00000000000000000000000000000001 0
b00000000000000000000000000010010 1
b00000000000000000000000000110000 5
b00001 7
b00101 8
1Y
#88
0Y
#89
b11111111111111111111111111111100 #
b00000000000000000000000000110000 $
b11111110011100101001111011100011 %
b00000000000000000000000001110110 '
0)
0+
b000 ,
b01 -
b00000000000000000000000000010010 .
b00000000000000000000000001100100 /
b00000000000000000000000001100100 0
b00000000000000000000000001110110 1
b00000000000000000000000000101100 5
b00111 7
b11101 8
b00000000000000000000000000010010 >
1Y
#90
0Y
#91
b00000000000000000000000000000001 #
b00000000000000000000000000101100 $
b00000000000100101000001010010011 %
b00000000000000000000000000010011 '
1)
1+
b001 ,
b00 -
b00000000000000000000000000011100 /
b00000000000000000000000000000001 0
b00000000000000000000000000010011 1
b00000000000000000000000000110000 5
b00001 7
b00101 8
1Y
#92
0Y
#93
b11111111111111111111111111111100 #
b00000000000000000000000000110000 $
b11111110011100101001111011100011 %
b00000000000000000000000001110111 '
0)
0+
b000 ,
b01 -
b00000000000000000000000000010011 .
b00000000000000000000000001100100 /
b00000000000000000000000001100100 0
b00000000000000000000000001110111 1
b00000000000000000000000000101100 5
b00111 7
b11101 8
b00000000000000000000000000010011 >
1Y
#94
0Y
#95
b00000000000000000000000000000001 #
b00000000000000000000000000101100 $
b00000000000100101000001010010011 %
b00000000000000000000000000010100 '
1)
1+
b001 ,
b00 -
b00000000000000000000000000011100 /
b00000000000000000000000000000001 0
b00000000000000000000000000010100 1
b00000000000000000000000000110000 5
b00001 7
b00101 8
1Y
#96
0Y
#97
b11111111111111111111111111111100 #
b00000000000000000000000000110000 $
b11111110011100101001111011100011 %
b00000000000000000000000001111000 '
0)
0+
b000 ,
b01 -
b00000000000000000000000000010100 .
b00000000000000000000000001100100 /
b00000000000000000000000001100100 0
b00000000000000000000000001111000 1
b00000000000000000000000000101100 5
b00111 7
b11101 8
b00000000000000000000000000010100 >
1Y
#98
0Y
#99
b00000000000000000000000000000001 #
b00000000000000000000000000101100 $
b00000000000100101000001010010011 %
b00000000000000000000000000010101 '
1)
1+
b001 ,
b00 -
b00000000000000000000000000011100 /
b00000000000000000000000000000001 0
b00000000000000000000000000010101 1
b00000000000000000000000000110000 5
b00001 7
b00101 8
1Y
#100
0Y
#101
b11111111111111111111111111111100 #
b00000000000000000000000000110000 $
b11111110011100101001111011100011 %
b00000000000000000000000001111001 '
0)
0+
b000 ,
b01 -
b00000000000000000000000000010101 .
b00000000000000000000000001100100 /
b00000000000000000000000001100100 0
b00000000000000000000000001111001 1
b00000000000000000000000000101100 5
b00111 7
b11101 8
b00000000000000000000000000010101 >
1Y
#102
0Y
#103
b00000000000000000000000000000001 #
b00000000000000000000000000101100 $
b00000000000100101000001010010011 %
b00000000000000000000000000010110 '
1)
1+
b001 ,
b00 -
b00000000000000000000000000011100 /
b00000000000000000000000000000001 0
b00000000000000000000000000010110 1
b00000000000000000000000000110000 5
b00001 7
b00101 8
1Y
#104
0Y
#105
b11111111111111111111111111111100 #
b00000000000000000000000000110000 $
b11111110011100101001111011100011 %
b00000000000000000000000001111010 '
0)
0+
b000 ,
b01 -
b00000000000000000000000000010110 .
b00000000000000000000000001100100 /
b00000000000000000000000001100100 0
b00000000000000000000000001111010 1
b00000000000000000000000000101100 5
b00111 7
b11101 8
b00000000000000000000000000010110 >
1Y
#106
0Y
#107
b00000000000000000000000000000001 #
b00000000000000000000000000101100 $
b00000000000100101000001010010011 %
b00000000000000000000000000010111 '
1)
1+
b001 ,
b00 -
b00000000000000000000000000011100 /
b00000000000000000000000000000001 0
b00000000000000000000000000010111 1
b00000000000000000000000000110000 5
b00001 7
b00101 8
1Y
#108
0Y
#109
b11111111111111111111111111111100 #
b00000000000000000000000000110000 $
b11111110011100101001111011100011 %
b00000000000000000000000001111011 '
0)
0+
b000 ,
b01 -
b00000000000000000000000000010111 .
b00000000000000000000000001100100 /
b00000000000000000000000001100100 0
b00000000000000000000000001111011 1
b00000000000000000000000000101100 5
b00111 7
b11101 8
b00000000000000000000000000010111 >
1Y
#110
0Y
#111
b00000000000000000000000000000001 #
b00000000000000000000000000101100 $
b00000000000100101000001010010011 %
b00000000000000000000000000011000 '
1)
1+
b001 ,
b00 -
b00000000000000000000000000011100 /
b00000000000000000000000000000001 0
b00000000000000000000000000011000 1
b00000000000000000000000000110000 5
b00001 7
b00101 8
1Y
#112
0Y
#113
b11111111111111111111111111111100 #
b00000000000000000000000000110000 $
b11111110011100101001111011100011 %
b00000000000000000000000001111100 '
0)
0+
b000 ,
b01 -
b00000000000000000000000000011000 .
b00000000000000000000000001100100 /
b00000000000000000000000001100100 0
b00000000000000000000000001111100 1
b00000000000000000000000000101100 5
b00111 7
b11101 8
b00000000000000000000000000011000 >
1Y
#114
0Y
#115
b00000000000000000000000000000001 #
b00000000000000000000000000101100 $
b00000000000100101000001010010011 %
b00000000000000000000000000011001 '
1)
1+
b001 ,
b00 -
b00000000000000000000000000011100 /
b00000000000000000000000000000001 0
b00000000000000000000000000011001 1
b00000000000000000000000000110000 5
b00001 7
b00101 8
1Y
#116
0Y
#117
b11111111111111111111111111111100 #
b00000000000000000000000000110000 $
b11111110011100101001111011100011 %
b00000000000000000000000001111101 '
0)
0+
b000 ,
b01 -
b00000000000000000000000000011001 .
b00000000000000000000000001100100 /
b00000000000000000000000001100100 0
b00000000000000000000000001111101 1
b00000000000000000000000000101100 5
b00111 7
b11101 8
b00000000000000000000000000011001 >
1Y
#118
0Y
#119
b00000000000000000000000000000001 #
b00000000000000000000000000101100 $
b00000000000100101000001010010011 %
b00000000000000000000000000011010 '
1)
1+
b001 ,
b00 -
b00000000000000000000000000011100 /
b00000000000000000000000000000001 0
b00000000000000000000000000011010 1
b00000000000000000000000000110000 5
b00001 7
b00101 8
1Y
#120
0Y
#121
b11111111111111111111111111111100 #
b00000000000000000000000000110000 $
b11111110011100101001111011100011 %
b00000000000000000000000001111110 '
0)
0+
b000 ,
b01 -
b00000000000000000000000000011010 .
b00000000000000000000000001100100 /
b00000000000000000000000001100100 0
b00000000000000000000000001111110 1
b00000000000000000000000000101100 5
b00111 7
b11101 8
b00000000000000000000000000011010 >
1Y
#122
0Y
#123
b00000000000000000000000000000001 #
b00000000000000000000000000101100 $
b00000000000100101000001010010011 %
b00000000000000000000000000011011 '
1)
1+
b001 ,
b00 -
b00000000000000000000000000011100 /
b00000000000000000000000000000001 0
b00000000000000000000000000011011 1
b00000000000000000000000000110000 5
b00001 7
b00101 8
1Y
#124
0Y
#125
b11111111111111111111111111111100 #
b00000000000000000000000000110000 $
b11111110011100101001111011100011 %
b00000000000000000000000001111111 '
0)
0+
b000 ,
b01 -
b00000000000000000000000000011011 .
b00000000000000000000000001100100 /
b00000000000000000000000001100100 0
b00000000000000000000000001111111 1
b00000000000000000000000000101100 5
b00111 7
b11101 8
b00000000000000000000000000011011 >
1Y
#126
0Y
#127
b00000000000000000000000000000001 #
b00000000000000000000000000101100 $
b00000000000100101000001010010011 %
b00000000000000000000000000011100 '
1)
1+
b001 ,
b00 -
b00000000000000000000000000011100 /
b00000000000000000000000000000001 0
b00000000000000000000000000011100 1
b00000000000000000000000000110000 5
b00001 7
b00101 8
1Y
#128
0Y
#129
b11111111111111111111111111111100 #
b00000000000000000000000000110000 $
b11111110011100101001111011100011 %
b00000000000000000000000010000000 '
0)
0+
b000 ,
b01 -
b00000000000000000000000000011100 .
b00000000000000000000000001100100 /
b00000000000000000000000001100100 0
b00000000000000000000000010000000 1
b00000000000000000000000000101100 5
b00111 7
b11101 8
b00000000000000000000000000011100 >
1Y
#130
0Y
#131
b00000000000000000000000000000001 #
b00000000000000000000000000101100 $
b00000000000100101000001010010011 %
b00000000000000000000000000011101 '
1)
1+
b001 ,
b00 -
b00000000000000000000000000011100 /
b00000000000000000000000000000001 0
b00000000000000000000000000011101 1
b00000000000000000000000000110000 5
b00001 7
b00101 8
1Y
#132
0Y
