f1_pipeline_working/top 2.vcd
$version Generated by VerilatedVcd $end
$date Fri Dec 16 22:19:19 2022 $end
$timescale 1ps $end

 $scope module TOP $end
  $var wire 32 } a0 [31:0] $end
  $var wire  1 { clk $end
  $var wire  1 | rst $end
  $scope module top $end
   $var wire  3 2 ALUctrlD [2:0] $end
   $var wire  3 9 ALUctrlE [2:0] $end
   $var wire 32 K ALUop2 [31:0] $end
   $var wire 32 L ALUresult [31:0] $end
   $var wire 32 M ALUresultM [31:0] $end
   $var wire 32 N ALUresultW [31:0] $end
   $var wire  1 3 ALUsrcD $end
   $var wire  1 : ALUsrcE $end
   $var wire  1 0 BranchD $end
   $var wire  1 7 BranchE $end
   $var wire  1 , EQ $end
   $var wire 32 # ImmOp [31:0] $end
   $var wire 32 $ ImmOpE [31:0] $end
   $var wire  2 ; ImmSrcD [1:0] $end
   $var wire 32 * Instr [31:0] $end
   $var wire 32 + InstrD [31:0] $end
   $var wire  1 / JumpD $end
   $var wire  1 6 JumpE $end
   $var wire  1 A JumpRegD $end
   $var wire  1 B JumpRegE $end
   $var wire  1 !! MemWriteD $end
   $var wire  1 5 MemWriteE $end
   $var wire  1 = MemWriteM $end
   $var wire 32 & PC [31:0] $end
   $var wire 32 ' PCD [31:0] $end
   $var wire 32 ( PCE [31:0] $end
   $var wire 32 R PCPlus4D [31:0] $end
   $var wire 32 S PCPlus4E [31:0] $end
   $var wire 32 Q PCPlus4F [31:0] $end
   $var wire 32 T PCPlus4M [31:0] $end
   $var wire 32 U PCPlus4W [31:0] $end
   $var wire  1 ) PCsrcE $end
   $var wire 32 O ReadData [31:0] $end
   $var wire 32 P ReadDataW [31:0] $end
   $var wire  1 1 RegWriteD $end
   $var wire  1 8 RegWriteE $end
   $var wire  1 > RegWriteM $end
   $var wire  1 @ RegWriteW $end
   $var wire  2 . ResultSrcD [1:0] $end
   $var wire  2 4 ResultSrcE [1:0] $end
   $var wire  2 < ResultSrcM [1:0] $end
   $var wire  2 ? ResultSrcW [1:0] $end
   $var wire 32 - ResultW [31:0] $end
   $var wire 32 ~ WIDTH [31:0] $end
   $var wire 32 } a0 [31:0] $end
   $var wire  1 { clk $end
   $var wire  1 V funct3E $end
   $var wire 32 % next_PC [31:0] $end
   $var wire 32 C rd1 [31:0] $end
   $var wire 32 I rd1E [31:0] $end
   $var wire 32 D rd2 [31:0] $end
   $var wire 32 J rd2E [31:0] $end
   $var wire 32 E rd2M [31:0] $end
   $var wire  5 F rdE [4:0] $end
   $var wire  5 G rdM [4:0] $end
   $var wire  5 H rdW [4:0] $end
   $var wire  1 | rst $end
   $scope module ALUclk $end
    $var wire 32 "! A_WIDTH [31:0] $end
    $var wire 32 ~ D_WIDTH [31:0] $end
    $var wire  1 5 MemWriteE $end
    $var wire  1 = MemWrite_outM $end
    $var wire  1 8 RegWriteE $end
    $var wire  1 > RegWrite_outM $end
    $var wire  2 4 ResultSrcE [1:0] $end
    $var wire  2 < ResultSrc_outM [1:0] $end
    $var wire 32 M SumM [31:0] $end
    $var wire 32 L Sum_out [31:0] $end
    $var wire  1 { clk $end
    $var wire 32 S pc4Ein [31:0] $end
    $var wire 32 T pc4Mout [31:0] $end
    $var wire 32 J rd2E [31:0] $end
    $var wire 32 E rd2M [31:0] $end
    $var wire  5 F rdE [4:0] $end
    $var wire  5 G rdM [4:0] $end
   $upscope $end
   $scope module CU $end
    $var wire  3 2 ALUctrl_out [2:0] $end
    $var wire  1 3 ALUsrc_out $end
    $var wire  1 0 Branch $end
    $var wire  2 ; ImmSrc_out [1:0] $end
    $var wire 32 + InstrD_in [31:0] $end
    $var wire  1 / Jump $end
    $var wire  1 A JumpReg $end
    $var wire  1 !! MemWrite_out $end
    $var wire  1 1 RegWrite_out $end
    $var wire  2 . ResultSrc_out [1:0] $end
   $upscope $end
   $scope module DMclk $end
    $var wire 32 "! A_WIDTH [31:0] $end
    $var wire 32 ~ D_WIDTH [31:0] $end
    $var wire 32 P ReadDataW [31:0] $end
    $var wire 32 O ReadData_out [31:0] $end
    $var wire  1 > RegWriteM $end
    $var wire  1 @ RegWrite_outW $end
    $var wire  2 < ResultSrcM [1:0] $end
    $var wire  2 ? ResultSrc_outW [1:0] $end
    $var wire 32 M SumM [31:0] $end
    $var wire 32 N SumW [31:0] $end
    $var wire  1 { clk $end
    $var wire 32 T pc4Min [31:0] $end
    $var wire 32 U pc4Wout [31:0] $end
    $var wire  5 G rdM [4:0] $end
    $var wire  5 H rdW [4:0] $end
   $upscope $end
   $scope module DataMem $end
    $var wire 32 ~ DATA_WIDTH [31:0] $end
    $var wire 32 O ReadData_out [31:0] $end
    $var wire  1 = Write_Enable $end
    $var wire 32 L a_in [31:0] $end
    $var wire  1 { clk_in $end
    $var wire 32 E wd_in [31:0] $end
   $upscope $end
   $scope module IMclk $end
    $var wire 32 ~ A_WIDTH [31:0] $end
    $var wire 32 + InstrD [31:0] $end
    $var wire 32 * Instr_in [31:0] $end
    $var wire 32 ' PCD [31:0] $end
    $var wire 32 & PC_in [31:0] $end
    $var wire  1 { clk $end
    $var wire 32 R pc4Dout [31:0] $end
    $var wire 32 Q pc4Fin [31:0] $end
   $upscope $end
   $scope module RFCLK $end
    $var wire  3 2 ALUctrlD [2:0] $end
    $var wire  3 9 ALUctrl_outE [2:0] $end
    $var wire  1 3 ALUsrcD $end
    $var wire  1 : ALUsrc_outE $end
    $var wire 32 "! A_WIDTH [31:0] $end
    $var wire  1 0 BranchD $end
    $var wire  1 7 BranchE $end
    $var wire 32 ~ D_WIDTH [31:0] $end
    $var wire 32 $ ImmOpE [31:0] $end
    $var wire 32 # ImmOp_out [31:0] $end
    $var wire  1 / JumpD $end
    $var wire  1 6 JumpE $end
    $var wire  1 A JumpRegD $end
    $var wire  1 B JumpRegE $end
    $var wire  1 !! MemWriteD $end
    $var wire  1 5 MemWrite_outE $end
    $var wire 32 ' PCD [31:0] $end
    $var wire 32 ( PCE [31:0] $end
    $var wire  1 1 RegWriteD $end
    $var wire  1 8 RegWrite_outE $end
    $var wire  2 . ResultSrcD [1:0] $end
    $var wire  2 4 ResultSrc_outE [1:0] $end
    $var wire  1 { clk $end
    $var wire  1 W funct3D $end
    $var wire  1 V funct3E $end
    $var wire 32 R pc4Din [31:0] $end
    $var wire 32 S pc4Eout [31:0] $end
    $var wire 32 I rd1E [31:0] $end
    $var wire 32 C rd1_in [31:0] $end
    $var wire 32 J rd2E [31:0] $end
    $var wire 32 D rd2_in [31:0] $end
    $var wire  5 F rdE [4:0] $end
    $var wire  5 X rd_in [4:0] $end
   $upscope $end
   $scope module SignExt $end
    $var wire 32 # ImmOp_out [31:0] $end
    $var wire  2 ; ImmSrc_in [1:0] $end
    $var wire 32 + instr_in [31:0] $end
   $upscope $end
   $scope module alu $end
    $var wire 32 #! ADDRESS_WIDTH [31:0] $end
    $var wire  3 9 ALUctrlE [2:0] $end
    $var wire 32 I ALUop1_in [31:0] $end
    $var wire 32 K ALUop2_in [31:0] $end
    $var wire 32 ~ DATA_WIDTH [31:0] $end
    $var wire  1 , EQ_out $end
    $var wire 32 L Sum_out [31:0] $end
   $upscope $end
   $scope module instrmem $end
    $var wire 32 ~ A_WIDTH [31:0] $end
    $var wire 32 $! D_WIDTH [31:0] $end
    $var wire 32 * Instr_out [31:0] $end
    $var wire 32 & PC_in [31:0] $end
   $upscope $end
   $scope module pcreg $end
    $var wire 32 ~ D_WIDTH [31:0] $end
    $var wire 32 & PC_out [31:0] $end
    $var wire  1 { clk_in $end
    $var wire 32 % next_PC [31:0] $end
    $var wire  1 | rst_in $end
   $upscope $end
   $scope module read_data1 $end
    $var wire 32 "! A_WIDTH [31:0] $end
    $var wire 32 ~ D_WIDTH [31:0] $end
    $var wire  1 @ RegWrite_in $end
    $var wire 32 } a0_out [31:0] $end
    $var wire  1 { clk_in $end
    $var wire 32 [ mem_array[0] [31:0] $end
    $var wire 32 e mem_array[10] [31:0] $end
    $var wire 32 f mem_array[11] [31:0] $end
    $var wire 32 g mem_array[12] [31:0] $end
    $var wire 32 h mem_array[13] [31:0] $end
    $var wire 32 i mem_array[14] [31:0] $end
    $var wire 32 j mem_array[15] [31:0] $end
    $var wire 32 k mem_array[16] [31:0] $end
    $var wire 32 l mem_array[17] [31:0] $end
    $var wire 32 m mem_array[18] [31:0] $end
    $var wire 32 n mem_array[19] [31:0] $end
    $var wire 32 \ mem_array[1] [31:0] $end
    $var wire 32 o mem_array[20] [31:0] $end
    $var wire 32 p mem_array[21] [31:0] $end
    $var wire 32 q mem_array[22] [31:0] $end
    $var wire 32 r mem_array[23] [31:0] $end
    $var wire 32 s mem_array[24] [31:0] $end
    $var wire 32 t mem_array[25] [31:0] $end
    $var wire 32 u mem_array[26] [31:0] $end
    $var wire 32 v mem_array[27] [31:0] $end
    $var wire 32 w mem_array[28] [31:0] $end
    $var wire 32 x mem_array[29] [31:0] $end
    $var wire 32 ] mem_array[2] [31:0] $end
    $var wire 32 y mem_array[30] [31:0] $end
    $var wire 32 z mem_array[31] [31:0] $end
    $var wire 32 ^ mem_array[3] [31:0] $end
    $var wire 32 _ mem_array[4] [31:0] $end
    $var wire 32 ` mem_array[5] [31:0] $end
    $var wire 32 a mem_array[6] [31:0] $end
    $var wire 32 b mem_array[7] [31:0] $end
    $var wire 32 c mem_array[8] [31:0] $end
    $var wire 32 d mem_array[9] [31:0] $end
    $var wire 32 C rd1_out [31:0] $end
    $var wire 32 D rd2_out [31:0] $end
    $var wire  5 H rd_in [4:0] $end
    $var wire  5 Y rs1_in [4:0] $end
    $var wire  5 Z rs2_in [4:0] $end
    $var wire 32 - write_data3_in [31:0] $end
   $upscope $end
   $scope module src $end
    $var wire 32 K ALUop2_out [31:0] $end
    $var wire  1 : ALUsrcE $end
    $var wire 32 ~ D_WIDTH [31:0] $end
    $var wire 32 $ ImmOpE_in [31:0] $end
    $var wire 32 J regOp2_in [31:0] $end
   $upscope $end
  $upscope $end
 $upscope $end
$enddefinitions $end


#0
b00000000000000000000000000000000 #
b00000000000000000000000000000000 $
b00000000000000000000000000000000 %
b00000000000000000000000000000000 &
b00000000000000000000000000000000 '
b00000000000000000000000000000000 (
0)
b00000000000000000000000000000000 *
b00000000000000000000000000000000 +
1,
b00000000000000000000000000000000 -
b00 .
0/
00
01
b000 2
03
b00 4
05
06
07
08
b000 9
0:
b00 ;
b00 <
0=
0>
b00 ?
0@
0A
0B
b00000000000000000000000000000000 C
b00000000000000000000000000000000 D
b00000000000000000000000000000000 E
b00000 F
b00000 G
b00000 H
b00000000000000000000000000000000 I
b00000000000000000000000000000000 J
b00000000000000000000000000000000 K
b00000000000000000000000000000000 L
b00000000000000000000000000000000 M
b00000000000000000000000000000000 N
b00000000000000000000000000000000 O
b00000000000000000000000000000000 P
b00000000000000000000000000000000 Q
b00000000000000000000000000000000 R
b00000000000000000000000000000000 S
b00000000000000000000000000000000 T
b00000000000000000000000000000000 U
0V
0W
b00000 X
b00000 Y
b00000 Z
b00000000000000000000000000000000 [
b00000000000000000000000000000000 \
b00000000000000000000000000000000 ]
b00000000000000000000000000000000 ^
b00000000000000000000000000000000 _
b00000000000000000000000000000000 `
b00000000000000000000000000000000 a
b00000000000000000000000000000000 b
b00000000000000000000000000000000 c
b00000000000000000000000000000000 d
b00000000000000000000000000000000 e
b00000000000000000000000000000000 f
b00000000000000000000000000000000 g
b00000000000000000000000000000000 h
b00000000000000000000000000000000 i
b00000000000000000000000000000000 j
b00000000000000000000000000000000 k
b00000000000000000000000000000000 l
b00000000000000000000000000000000 m
b00000000000000000000000000000000 n
b00000000000000000000000000000000 o
b00000000000000000000000000000000 p
b00000000000000000000000000000000 q
b00000000000000000000000000000000 r
b00000000000000000000000000000000 s
b00000000000000000000000000000000 t
b00000000000000000000000000000000 u
b00000000000000000000000000000000 v
b00000000000000000000000000000000 w
b00000000000000000000000000000000 x
b00000000000000000000000000000000 y
b00000000000000000000000000000000 z
0{
0|
b00000000000000000000000000000000 }
b00000000000000000000000000100000 ~
0!!
b00000000000000000000000000000101 "!
b00000000000000000000000000000011 #!
b00000000000000000000000000001000 $!
#1
b00000000000000000000000000000100 %
b00001111111100000000001100010011 *
13
b00000000000000000000000011111111 O
b00000000000000000000000000000100 Q
1{
#2
0{
#3
b00000000000000000000000011111111 #
b00000000000000000000000000001000 %
b00000000000000000000000000000100 &
b00000000000000000000000000010011 *
b00001111111100000000001100010011 +
11
1:
b01 ;
b00000000000000000000000011111111 P
b00000000000000000000000000001000 Q
b00000000000000000000000000000100 R
b00110 X
b11111 Z
1{
#4
0{
#5
b00000000000000000000000000000000 #
b00000000000000000000000011111111 $
b00000000000000000000000000001100 %
b00000000000000000000000000001000 &
b00000000000000000000000000000100 '
b00000000000000000000000000010011 +
0,
18
b00110 F
b00000000000000000000000011111111 K
b00000000000000000000000011111111 L
b00000000000000000000000000000000 O
b00000000000000000000000000001100 Q
b00000000000000000000000000001000 R
b00000000000000000000000000000100 S
b00000 X
b00000 Z
1{
#6
0{
#7
b00000000000000000000000000000000 $
b00000000000000000000000000010000 %
b00000000000000000000000000001100 &
b00000000000000000000000000001000 '
b00000000000000000000000000000100 (
b00000000000000000000010100010011 *
1,
1>
b00000 F
b00110 G
b00000000000000000000000000000000 K
b00000000000000000000000000000000 L
b00000000000000000000000011111111 M
b00000000000000000000000011111111 O
b00000000000000000000000000000000 P
b00000000000000000000000000010000 Q
b00000000000000000000000000001100 R
b00000000000000000000000000001000 S
b00000000000000000000000000000100 T
1{
#8
0{
#9
b00000000000000000000000000010100 %
b00000000000000000000000000010000 &
b00000000000000000000000000001100 '
b00000000000000000000000000001000 (
b00000000000000000000000000010011 *
b00000000000000000000010100010011 +
b00000000000000000000000011111111 -
1@
b00000 G
b00110 H
b00000000000000000000000000000000 M
b00000000000000000000000011111111 N
b00000000000000000000000011111111 P
b00000000000000000000000000010100 Q
b00000000000000000000000000010000 R
b00000000000000000000000000001100 S
b00000000000000000000000000001000 T
b00000000000000000000000000000100 U
b01010 X
1{
#10
0{
#11
b00000000000000000000000000011000 %
b00000000000000000000000000010100 &
b00000000000000000000000000010000 '
b00000000000000000000000000001100 (
b00000000000000000000000000010011 +
b00000000000000000000000000000000 -
b01010 F
b00000 H
b00000000000000000000000000000000 N
b00000000000000000000000000011000 Q
b00000000000000000000000000010100 R
b00000000000000000000000000010000 S
b00000000000000000000000000001100 T
b00000000000000000000000000001000 U
b00000 X
b00000000000000000000000011111111 a
1{
#12
0{
#13
b00000000000000000000000000011100 %
b00000000000000000000000000011000 &
b00000000000000000000000000010100 '
b00000000000000000000000000010000 (
b00000000000000000000010110010011 *
b00000 F
b01010 G
b00000000000000000000000000011100 Q
b00000000000000000000000000011000 R
b00000000000000000000000000010100 S
b00000000000000000000000000010000 T
b00000000000000000000000000001100 U
1{
#14
0{
#15
b00000000000000000000000000100000 %
b00000000000000000000000000011100 &
b00000000000000000000000000011000 '
b00000000000000000000000000010100 (
b00000000000000000000000000010011 *
b00000000000000000000010110010011 +
b00000 G
b01010 H
b00000000000000000000000000100000 Q
b00000000000000000000000000011100 R
b00000000000000000000000000011000 S
b00000000000000000000000000010100 T
b00000000000000000000000000010000 U
b01011 X
1{
#16
0{
#17
b00000000000000000000000000100100 %
b00000000000000000000000000100000 &
b00000000000000000000000000011100 '
b00000000000000000000000000011000 (
b00000000000000000000000000010011 +
b01011 F
b00000 H
b00000000000000000000000000100100 Q
b00000000000000000000000000100000 R
b00000000000000000000000000011100 S
b00000000000000000000000000011000 T
b00000000000000000000000000010100 U
b00000 X
1{
#18
0{
#19
b00000000000000000000000000101000 %
b00000000000000000000000000100100 &
b00000000000000000000000000100000 '
b00000000000000000000000000011100 (
b00000000000101011001010110010011 *
b00000 F
b01011 G
b00000000000000000000000000101000 Q
b00000000000000000000000000100100 R
b00000000000000000000000000100000 S
b00000000000000000000000000011100 T
b00000000000000000000000000011000 U
1{
#20
0{
#21
b00000000000000000000000000000001 #
b00000000000000000000000000101100 %
b00000000000000000000000000101000 &
b00000000000000000000000000100100 '
b00000000000000000000000000100000 (
b00000000000000000000000000010011 *
b00000000000101011001010110010011 +
b001 2
b00000 G
b01011 H
b00000000000000000000000000101100 Q
b00000000000000000000000000101000 R
b00000000000000000000000000100100 S
b00000000000000000000000000100000 T
b00000000000000000000000000011100 U
1W
b01011 X
b01011 Y
b00001 Z
1{
#22
0{
#23
b00000000000000000000000000000000 #
b00000000000000000000000000000001 $
b00000000000000000000000000110000 %
b00000000000000000000000000101100 &
b00000000000000000000000000101000 '
b00000000000000000000000000100100 (
b00000000000000000000000000010011 +
0,
b000 2
b001 9
b01011 F
b00000 H
b00000000000000000000000000000001 K
b00000000000000000000000000110000 Q
b00000000000000000000000000101100 R
b00000000000000000000000000101000 S
b00000000000000000000000000100100 T
b00000000000000000000000000100000 U
1V
0W
b00000 X
b00000 Y
b00000 Z
1{
#24
0{
#25
b00000000000000000000000000000000 $
b00000000000000000000000000110100 %
b00000000000000000000000000110000 &
b00000000000000000000000000101100 '
b00000000000000000000000000101000 (
1,
b000 9
b00000 F
b01011 G
b00000000000000000000000000000000 K
b00000000000000000000000000110100 Q
b00000000000000000000000000110000 R
b00000000000000000000000000101100 S
b00000000000000000000000000101000 T
b00000000000000000000000000100100 U
0V
1{
#26
0{
#27
b00000000000000000000000000111000 %
b00000000000000000000000000110100 &
b00000000000000000000000000110000 '
b00000000000000000000000000101100 (
b00000000000101011000010110010011 *
b00000 G
b01011 H
b00000000000000000000000000111000 Q
b00000000000000000000000000110100 R
b00000000000000000000000000110000 S
b00000000000000000000000000101100 T
b00000000000000000000000000101000 U
1{
#28
0{
#29
b00000000000000000000000000000001 #
b00000000000000000000000000111100 %
b00000000000000000000000000111000 &
b00000000000000000000000000110100 '
b00000000000000000000000000110000 (
b00000000000000000000000000010011 *
b00000000000101011000010110010011 +
b00000 H
b00000000000000000000000000111100 Q
b00000000000000000000000000111000 R
b00000000000000000000000000110100 S
b00000000000000000000000000110000 T
b00000000000000000000000000101100 U
b01011 X
b01011 Y
b00001 Z
1{
#30
0{
#31
b00000000000000000000000000000000 #
b00000000000000000000000000000001 $
b00000000000000000000000001000000 %
b00000000000000000000000000111100 &
b00000000000000000000000000111000 '
b00000000000000000000000000110100 (
b00000000000000000000000000010011 +
0,
b01011 F
b00000000000000000000000000000001 K
b00000000000000000000000000000001 L
b00000000000000001111111100000000 O
b00000000000000000000000001000000 Q
b00000000000000000000000000111100 R
b00000000000000000000000000111000 S
b00000000000000000000000000110100 T
b00000000000000000000000000110000 U
b00000 X
b00000 Y
b00000 Z
1{
#32
0{
#33
b00000000000000000000000000000000 $
b00000000000000000000000001000100 %
b00000000000000000000000001000000 &
b00000000000000000000000000111100 '
b00000000000000000000000000111000 (
1,
b00000 F
b01011 G
b00000000000000000000000000000000 K
b00000000000000000000000000000000 L
b00000000000000000000000000000001 M
b00000000000000000000000011111111 O
b00000000000000001111111100000000 P
b00000000000000000000000001000100 Q
b00000000000000000000000001000000 R
b00000000000000000000000000111100 S
b00000000000000000000000000111000 T
b00000000000000000000000000110100 U
1{
#34
0{
#35
b00000000000000000000000001001000 %
b00000000000000000000000001000100 &
b00000000000000000000000001000000 '
b00000000000000000000000000111100 (
b00000000000001011000010100010011 *
b00000000000000000000000000000001 -
b00000 G
b01011 H
b00000000000000000000000000000000 M
b00000000000000000000000000000001 N
b00000000000000000000000011111111 P
b00000000000000000000000001001000 Q
b00000000000000000000000001000100 R
b00000000000000000000000001000000 S
b00000000000000000000000000111100 T
b00000000000000000000000000111000 U
1{
#36
0{
#37
b00000000000000000000000001001100 %
b00000000000000000000000001001000 &
b00000000000000000000000001000100 '
b00000000000000000000000001000000 (
b00000000000000000000000000010011 *
b00000000000001011000010100010011 +
b00000000000000000000000000000000 -
b00000000000000000000000000000001 C
b00000 H
b00000000000000000000000000000000 N
b00000000000000000000000001001100 Q
b00000000000000000000000001001000 R
b00000000000000000000000001000100 S
b00000000000000000000000001000000 T
b00000000000000000000000000111100 U
b01010 X
b01011 Y
b00000000000000000000000000000001 f
1{
#38
0{
#39
b00000000000000000000000001010000 %
b00000000000000000000000001001100 &
b00000000000000000000000001001000 '
b00000000000000000000000001000100 (
b00000000000000000000000000010011 +
0,
b00000000000000000000000000000000 C
b01010 F
b00000000000000000000000000000001 I
b00000000000000000000000000000001 L
b00000000000000001111111100000000 O
b00000000000000000000000001010000 Q
b00000000000000000000000001001100 R
b00000000000000000000000001001000 S
b00000000000000000000000001000100 T
b00000000000000000000000001000000 U
b00000 X
b00000 Y
1{
#40
0{
#41
b00000000000000000000000001010100 %
b00000000000000000000000001010000 &
b00000000000000000000000001001100 '
b00000000000000000000000001001000 (
b00000010010000000000000011101111 *
1,
b00000 F
b01010 G
b00000000000000000000000000000000 I
b00000000000000000000000000000000 L
b00000000000000000000000000000001 M
b00000000000000000000000011111111 O
b00000000000000001111111100000000 P
b00000000000000000000000001010100 Q
b00000000000000000000000001010000 R
b00000000000000000000000001001100 S
b00000000000000000000000001001000 T
b00000000000000000000000001000100 U
1{
#42
0{
#43
b00000000000000000000000000100100 #
b00000000000000000000000001011000 %
b00000000000000000000000001010100 &
b00000000000000000000000001010000 '
b00000000000000000000000001001100 (
b00000000000000000000000000010011 *
b00000010010000000000000011101111 +
b00000000000000000000000000000001 -
b10 .
1/
b11 ;
b00000 G
b01010 H
b00000000000000000000000000000000 M
b00000000000000000000000000000001 N
b00000000000000000000000011111111 P
b00000000000000000000000001011000 Q
b00000000000000000000000001010100 R
b00000000000000000000000001010000 S
b00000000000000000000000001001100 T
b00000000000000000000000001001000 U
b00001 X
b00100 Z
1{
#44
0{
#45
b00000000000000000000000000000000 #
b00000000000000000000000000100100 $
b00000000000000000000000001110100 %
b00000000000000000000000001011000 &
b00000000000000000000000001010100 '
b00000000000000000000000001010000 (
1)
b00000000000000000000000000010011 +
0,
b00000000000000000000000000000000 -
b00 .
0/
b10 4
16
b01 ;
b00001 F
b00000 H
b00000000000000000000000000100100 K
b00000000000000000000000000100100 L
b00000000000000000000000000000000 N
b00000000000000000000000011110110 O
b00000000000000000000000001011100 Q
b00000000000000000000000001011000 R
b00000000000000000000000001010100 S
b00000000000000000000000001010000 T
b00000000000000000000000001001100 U
b00000 X
b00000 Z
b00000000000000000000000000000001 e
1{
b00000000000000000000000000000001 }
#46
0{
#47
b00000000000000000000000000000000 $
b00000000000000000000000001111000 %
b00000000000000000000000001110100 &
b00000000000000000000000001011000 '
b00000000000000000000000001010100 (
0)
b00000000000000000000001010010011 *
1,
b00 4
06
b10 <
b00000 F
b00001 G
b00000000000000000000000000000000 K
b00000000000000000000000000000000 L
b00000000000000000000000000100100 M
b00000000000000000000000011111111 O
b00000000000000000000000011110110 P
b00000000000000000000000001111000 Q
b00000000000000000000000001011100 R
b00000000000000000000000001011000 S
b00000000000000000000000001010100 T
b00000000000000000000000001010000 U
1{
#48
0{
#49
b00000000000000000000000001111100 %
b00000000000000000000000001111000 &
b00000000000000000000000001110100 '
b00000000000000000000000001011000 (
b00000000000000000000000000010011 *
b00000000000000000000001010010011 +
b00000000000000000000000001010100 -
b00 <
b10 ?
b00000 G
b00001 H
b00000000000000000000000000000000 M
b00000000000000000000000000100100 N
b00000000000000000000000011111111 P
b00000000000000000000000001111100 Q
b00000000000000000000000001111000 R
b00000000000000000000000001011100 S
b00000000000000000000000001011000 T
b00000000000000000000000001010100 U
b00101 X
1{
#50
0{
#51
b00000000000000000000000010000000 %
b00000000000000000000000001111100 &
b00000000000000000000000001111000 '
b00000000000000000000000001110100 (
b00000000000000000000000000010011 +
b00000000000000000000000000000000 -
b00 ?
b00101 F
b00000 H
b00000000000000000000000000000000 N
b00000000000000000000000010000000 Q
b00000000000000000000000001111100 R
b00000000000000000000000001111000 S
b00000000000000000000000001011100 T
b00000000000000000000000001011000 U
b00000 X
b00000000000000000000000001010100 \
1{
#52
0{
#53
b00000000000000000000000010000100 %
b00000000000000000000000010000000 &
b00000000000000000000000001111100 '
b00000000000000000000000001111000 (
b00000000101000000000001110010011 *
b00000 F
b00101 G
b00000000000000000000000010000100 Q
b00000000000000000000000010000000 R
b00000000000000000000000001111100 S
b00000000000000000000000001111000 T
b00000000000000000000000001011100 U
1{
#54
0{
#55
b00000000000000000000000000001010 #
b00000000000000000000000010001000 %
b00000000000000000000000010000100 &
b00000000000000000000000010000000 '
b00000000000000000000000001111100 (
b00000000000000000000000000010011 *
b00000000101000000000001110010011 +
b00000000000000000000000000000001 D
b00000 G
b00101 H
b00000000000000000000000010001000 Q
b00000000000000000000000010000100 R
b00000000000000000000000010000000 S
b00000000000000000000000001111100 T
b00000000000000000000000001111000 U
b00111 X
b01010 Z
1{
#56
0{
#57
b00000000000000000000000000000000 #
b00000000000000000000000000001010 $
b00000000000000000000000010001100 %
b00000000000000000000000010001000 &
b00000000000000000000000010000100 '
b00000000000000000000000010000000 (
b00000000000000000000000000010011 +
0,
b00000000000000000000000000000000 D
b00111 F
b00000 H
b00000000000000000000000000000001 J
b00000000000000000000000000001010 K
b00000000000000000000000000001010 L
b00000000111111010000000000000000 O
b00000000000000000000000010001100 Q
b00000000000000000000000010001000 R
b00000000000000000000000010000100 S
b00000000000000000000000010000000 T
b00000000000000000000000001111100 U
b00000 X
b00000 Z
1{
#58
0{
#59
b00000000000000000000000000000000 $
b00000000000000000000000010010000 %
b00000000000000000000000010001100 &
b00000000000000000000000010001000 '
b00000000000000000000000010000100 (
b00000000000100101000001010010011 *
1,
b00000000000000000000000000000001 E
b00000 F
b00111 G
b00000000000000000000000000000000 J
b00000000000000000000000000000000 K
b00000000000000000000000000000000 L
b00000000000000000000000000001010 M
b00000000000000000000000011111111 O
b00000000111111010000000000000000 P
b00000000000000000000000010010000 Q
b00000000000000000000000010001100 R
b00000000000000000000000010001000 S
b00000000000000000000000010000100 T
b00000000000000000000000010000000 U
1{
#60
0{
#61
b00000000000000000000000000000001 #
b00000000000000000000000010010100 %
b00000000000000000000000010010000 &
b00000000000000000000000010001100 '
b00000000000000000000000010001000 (
b00000000000000000000000000010011 *
b00000000000100101000001010010011 +
b00000000000000000000000000001010 -
b00000000000000000000000001010100 D
b00000000000000000000000000000000 E
b00000 G
b00111 H
b00000000000000000000000000000000 M
b00000000000000000000000000001010 N
b00000000000000000000000011111111 P
b00000000000000000000000010010100 Q
b00000000000000000000000010010000 R
b00000000000000000000000010001100 S
b00000000000000000000000010001000 T
b00000000000000000000000010000100 U
b00101 X
b00101 Y
b00001 Z
1{
#62
0{
#63
b00000000000000000000000000000000 #
b00000000000000000000000000000001 $
b00000000000000000000000010011000 %
b00000000000000000000000010010100 &
b00000000000000000000000010010000 '
b00000000000000000000000010001100 (
b00000000000000000000000000010011 +
0,
b00000000000000000000000000000000 -
b00000000000000000000000000000000 D
b00101 F
b00000 H
b00000000000000000000000001010100 J
b00000000000000000000000000000001 K
b00000000000000000000000000000001 L
b00000000000000000000000000000000 N
b00000000000000001111111100000000 O
b00000000000000000000000010011000 Q
b00000000000000000000000010010100 R
b00000000000000000000000010010000 S
b00000000000000000000000010001100 T
b00000000000000000000000010001000 U
b00000 X
b00000 Y
b00000 Z
b00000000000000000000000000001010 b
1{
#64
0{
#65
b00000000000000000000000000000000 $
b00000000000000000000000010011100 %
b00000000000000000000000010011000 &
b00000000000000000000000010010100 '
b00000000000000000000000010010000 (
b11111110011100101001101011100011 *
1,
b00000000000000000000000001010100 E
b00000 F
b00101 G
b00000000000000000000000000000000 J
b00000000000000000000000000000000 K
b00000000000000000000000000000000 L
b00000000000000000000000000000001 M
b00000000000000000000000011111111 O
b00000000000000001111111100000000 P
b00000000000000000000000010011100 Q
b00000000000000000000000010011000 R
b00000000000000000000000010010100 S
b00000000000000000000000010010000 T
b00000000000000000000000010001100 U
1{
#66
0{
#67
b11111111111111111111111111110100 #
b00000000000000000000000010100000 %
b00000000000000000000000010011100 &
b00000000000000000000000010011000 '
b00000000000000000000000010010100 (
b00000000000000000000000000010011 *
b11111110011100101001101011100011 +
b00000000000000000000000000000001 -
10
01
03
b00 ;
b00000000000000000000000000001010 D
b00000000000000000000000000000000 E
b00000 G
b00101 H
b00000000000000000000000000000000 M
b00000000000000000000000000000001 N
b00000000000000000000000011111111 P
b00000000000000000000000010100000 Q
b00000000000000000000000010011100 R
b00000000000000000000000010011000 S
b00000000000000000000000010010100 T
b00000000000000000000000010010000 U
1W
b10101 X
b00101 Y
b00111 Z
1{
#68
0{
#69
b00000000000000000000000000000000 #
b11111111111111111111111111110100 $
b00000000000000000000000010001100 %
b00000000000000000000000010100000 &
b00000000000000000000000010011100 '
b00000000000000000000000010011000 (
1)
b00000000000000000000000000010011 +
0,
b00000000000000000000000000000000 -
00
11
13
17
08
0:
b01 ;
b00000000000000000000000000000000 D
b10101 F
b00000 H
b00000000000000000000000000001010 J
b00000000000000000000000000001010 K
b00000000000000000000000000001010 L
b00000000000000000000000000000000 N
b00000000111111010000000000000000 O
b00000000000000000000000010100100 Q
b00000000000000000000000010100000 R
b00000000000000000000000010011100 S
b00000000000000000000000010011000 T
b00000000000000000000000010010100 U
1V
0W
b00000 X
b00000 Y
b00000 Z
b00000000000000000000000000000001 `
1{
#70
0{
